{
  "data": [
    {
      "category": "3.10",
      "date": "2024-08",
      "downloads": 40
    },
    {
      "category": "3.10",
      "date": "2024-09",
      "downloads": 243
    },
    {
      "category": "3.10",
      "date": "2024-10",
      "downloads": 240
    },
    {
      "category": "3.10",
      "date": "2024-11",
      "downloads": 242
    },
    {
      "category": "3.10",
      "date": "2024-12",
      "downloads": 256
    },
    {
      "category": "3.10",
      "date": "2025-01",
      "downloads": 250
    },
    {
      "category": "3.10",
      "date": "2025-02",
      "downloads": 176
    },
    {
      "category": "3.11",
      "date": "2024-08",
      "downloads": 40
    },
    {
      "category": "3.11",
      "date": "2024-09",
      "downloads": 240
    },
    {
      "category": "3.11",
      "date": "2024-10",
      "downloads": 238
    },
    {
      "category": "3.11",
      "date": "2024-11",
      "downloads": 240
    },
    {
      "category": "3.11",
      "date": "2024-12",
      "downloads": 251
    },
    {
      "category": "3.11",
      "date": "2025-01",
      "downloads": 248
    },
    {
      "category": "3.11",
      "date": "2025-02",
      "downloads": 176
    },
    {
      "category": "3.12",
      "date": "2024-08",
      "downloads": 42
    },
    {
      "category": "3.12",
      "date": "2024-09",
      "downloads": 240
    },
    {
      "category": "3.12",
      "date": "2024-10",
      "downloads": 238
    },
    {
      "category": "3.12",
      "date": "2024-11",
      "downloads": 240
    },
    {
      "category": "3.12",
      "date": "2024-12",
      "downloads": 252
    },
    {
      "category": "3.12",
      "date": "2025-01",
      "downloads": 248
    },
    {
      "category": "3.12",
      "date": "2025-02",
      "downloads": 176
    },
    {
      "category": "3.13",
      "date": "2025-01",
      "downloads": 2
    },
    {
      "category": "3.9",
      "date": "2024-08",
      "downloads": 1
    },
    {
      "category": "3.9",
      "date": "2024-10",
      "downloads": 4
    },
    {
      "category": "3.9",
      "date": "2024-11",
      "downloads": 2
    },
    {
      "category": "null",
      "date": "2024-08",
      "downloads": 2
    },
    {
      "category": "null",
      "date": "2024-09",
      "downloads": 22
    },
    {
      "category": "null",
      "date": "2024-10",
      "downloads": 57
    },
    {
      "category": "null",
      "date": "2024-11",
      "downloads": 29
    },
    {
      "category": "null",
      "date": "2024-12",
      "downloads": 30
    },
    {
      "category": "null",
      "date": "2025-01",
      "downloads": 55
    },
    {
      "category": "null",
      "date": "2025-02",
      "downloads": 42
    }
  ],
  "package": "tutkia",
  "type": "python_minor_downloads"
}
