{
  "info": {
    "author": "",
    "author_email": "Stefan Hagen <stefan@hagen.link>",
    "bugtrack_url": null,
    "classifiers": [
      "Development Status :: 3 - Alpha",
      "Intended Audience :: Developers",
      "License :: OSI Approved :: MIT License",
      "Programming Language :: Python :: 3.10",
      "Programming Language :: Python :: 3.11",
      "Programming Language :: Python :: 3.9"
    ],
    "description": "# Tutkia\n\nExplore (Finnish: tutkia) ticket system trees.\n\n[License: MIT](https://git.sr.ht/~sthagen/tutkia/tree/default/item/LICENSE)\n\nThird party dependencies are documented in the folder [third-party](docs/third-party/README.md).\n\n[![version](https://img.shields.io/pypi/v/tutkia.svg?style=flat)](https://pypi.python.org/pypi/tutkia/)\n[![downloads](https://pepy.tech/badge/tutkia/month)](https://pepy.tech/project/tutkia)\n[![wheel](https://img.shields.io/pypi/wheel/tutkia.svg?style=flat)](https://pypi.python.org/pypi/tutkia/)\n[![supported-versions](https://img.shields.io/pypi/pyversions/tutkia.svg?style=flat)](https://pypi.python.org/pypi/tutkia/)\n[![supported-implementations](https://img.shields.io/pypi/implementation/tutkia.svg?style=flat)](https://pypi.python.org/pypi/tutkia/)\n\n## Documentation\n\nUser and developer [documentation of tutkia](https://codes.dilettant.life/docs/tutkia).\n\n## Bug Tracker\n\nFeature requests and bug reports are best entered in the [todos of tutkia](https://todo.sr.ht/~sthagen/tutkia).\n\n## Primary Source repository\n\nThe main source of `tutkia` is on a mountain in central Switzerland.\nWe use distributed version control (git).\nThere is no central hub.\nEvery clone can become a new source for the benefit of all.\nThe preferred public clones of `tutkia` are:\n\n* [on codeberg](https://codeberg.org/sthagen/tutkia) - a democratic community-driven, non-profit software development platform operated by Codeberg e.V.\n* [at sourcehut](https://git.sr.ht/~sthagen/tutkia) - a collection of tools useful for software development.\n\n# Status\n\nExperimental.\n\n**Note**: The default branch is `default`.\n\n",
    "description_content_type": "text/markdown",
    "docs_url": null,
    "download_url": "",
    "downloads": {
      "last_day": -1,
      "last_month": -1,
      "last_week": -1
    },
    "dynamic": null,
    "home_page": "",
    "keywords": "developer-tools,devops",
    "license": "",
    "license_expression": null,
    "license_files": null,
    "maintainer": "",
    "maintainer_email": "Stefan Hagen <stefan@hagen.link>",
    "name": "tutkia",
    "package_url": "https://pypi.org/project/tutkia/",
    "platform": null,
    "project_url": "https://pypi.org/project/tutkia/",
    "project_urls": {
      "Bug-Tracker": "https://todo.sr.ht/~sthagen/tutkia",
      "Documentation": "https://codes.dilettant.life/docs/tutkia",
      "Homepage": "https://git.sr.ht/~sthagen/tutkia",
      "Source-Code": "https://git.sr.ht/~sthagen/tutkia",
      "Test-Coverage": "https://codes.dilettant.life/coverage/tutkia"
    },
    "provides_extra": null,
    "release_url": "https://pypi.org/project/tutkia/2023.2.18/",
    "requires_dist": [
      "atlassian-python-api (>=3.33.0)",
      "msgspec (>=0.13.1)",
      "black ; extra == 'dev'",
      "coverage ; extra == 'dev'",
      "hypothesis ; extra == 'dev'",
      "mypy ; extra == 'dev'",
      "pytest ; extra == 'dev'",
      "pytest-cov ; extra == 'dev'",
      "pytest-flake8 ; extra == 'dev'",
      "ruff ; extra == 'dev'"
    ],
    "requires_python": ">=3.9",
    "summary": "Explore (Finnish: tutkia) ticket system trees.",
    "version": "2023.2.18",
    "yanked": false,
    "yanked_reason": null
  },
  "last_serial": 16919096,
  "releases": {
    "2023.2.18": [
      {
        "comment_text": "",
        "digests": {
          "blake2b_256": "c4c9d7a09381ce001a3341a3bac301d11db92fdfc9aa85bc3a8f6211a238e64b",
          "md5": "f197595c34275d67b6a2a3f9e60311d2",
          "sha256": "1b452a9aabb6f0e3e56f4b441661a7bbab4c2bfaebe0fa973841f11f8e5a0423"
        },
        "downloads": -1,
        "filename": "tutkia-2023.2.18-py3-none-any.whl",
        "has_sig": false,
        "md5_digest": "f197595c34275d67b6a2a3f9e60311d2",
        "packagetype": "bdist_wheel",
        "python_version": "py3",
        "requires_python": ">=3.9",
        "size": 7737,
        "upload_time": "2023-02-18T20:34:55",
        "upload_time_iso_8601": "2023-02-18T20:34:55.330294Z",
        "url": "https://files.pythonhosted.org/packages/c4/c9/d7a09381ce001a3341a3bac301d11db92fdfc9aa85bc3a8f6211a238e64b/tutkia-2023.2.18-py3-none-any.whl",
        "yanked": false,
        "yanked_reason": null
      },
      {
        "comment_text": "",
        "digests": {
          "blake2b_256": "d43025fbb5980d2acce2ea7db3b2618eef69352171f105f4c0dffe48af50b102",
          "md5": "6640413394a3d49f1f7e9f2b36a02743",
          "sha256": "8ba1b14e3f40ecaef7e951c457e08608aaf11200950ee133dcbb715f4ea0f8b6"
        },
        "downloads": -1,
        "filename": "tutkia-2023.2.18.tar.gz",
        "has_sig": false,
        "md5_digest": "6640413394a3d49f1f7e9f2b36a02743",
        "packagetype": "sdist",
        "python_version": "source",
        "requires_python": ">=3.9",
        "size": 7803,
        "upload_time": "2023-02-18T20:34:57",
        "upload_time_iso_8601": "2023-02-18T20:34:57.182650Z",
        "url": "https://files.pythonhosted.org/packages/d4/30/25fbb5980d2acce2ea7db3b2618eef69352171f105f4c0dffe48af50b102/tutkia-2023.2.18.tar.gz",
        "yanked": false,
        "yanked_reason": null
      }
    ]
  },
  "urls": [
    {
      "comment_text": "",
      "digests": {
        "blake2b_256": "c4c9d7a09381ce001a3341a3bac301d11db92fdfc9aa85bc3a8f6211a238e64b",
        "md5": "f197595c34275d67b6a2a3f9e60311d2",
        "sha256": "1b452a9aabb6f0e3e56f4b441661a7bbab4c2bfaebe0fa973841f11f8e5a0423"
      },
      "downloads": -1,
      "filename": "tutkia-2023.2.18-py3-none-any.whl",
      "has_sig": false,
      "md5_digest": "f197595c34275d67b6a2a3f9e60311d2",
      "packagetype": "bdist_wheel",
      "python_version": "py3",
      "requires_python": ">=3.9",
      "size": 7737,
      "upload_time": "2023-02-18T20:34:55",
      "upload_time_iso_8601": "2023-02-18T20:34:55.330294Z",
      "url": "https://files.pythonhosted.org/packages/c4/c9/d7a09381ce001a3341a3bac301d11db92fdfc9aa85bc3a8f6211a238e64b/tutkia-2023.2.18-py3-none-any.whl",
      "yanked": false,
      "yanked_reason": null
    },
    {
      "comment_text": "",
      "digests": {
        "blake2b_256": "d43025fbb5980d2acce2ea7db3b2618eef69352171f105f4c0dffe48af50b102",
        "md5": "6640413394a3d49f1f7e9f2b36a02743",
        "sha256": "8ba1b14e3f40ecaef7e951c457e08608aaf11200950ee133dcbb715f4ea0f8b6"
      },
      "downloads": -1,
      "filename": "tutkia-2023.2.18.tar.gz",
      "has_sig": false,
      "md5_digest": "6640413394a3d49f1f7e9f2b36a02743",
      "packagetype": "sdist",
      "python_version": "source",
      "requires_python": ">=3.9",
      "size": 7803,
      "upload_time": "2023-02-18T20:34:57",
      "upload_time_iso_8601": "2023-02-18T20:34:57.182650Z",
      "url": "https://files.pythonhosted.org/packages/d4/30/25fbb5980d2acce2ea7db3b2618eef69352171f105f4c0dffe48af50b102/tutkia-2023.2.18.tar.gz",
      "yanked": false,
      "yanked_reason": null
    }
  ],
  "vulnerabilities": []
}